…
Get the data into a format where the five columns for Death\[1-5\] are
replaced by two columns: Time, and Death. Time should be a number
between 1 and 5 (look into the function `parse_number`); Death is a
categorical variables with values “yes”, “no” and ““. Call the resulting
data set `deaths`.

    deaths <- av |>
      pivot_longer(cols = starts_with("Death"),
                   names_to = "Time",
                   values_to = "Death") |>
      mutate(Time = parse_number(str_remove(Time,"Death")))
    deaths

    ## # A tibble: 865 × 18
    ##    URL                     Name.Alias Appearances Current. Gender Probationary.Introl Full.Reserve.Avenger…¹  Year
    ##    <chr>                   <chr>            <int> <chr>    <chr>  <chr>               <chr>                  <int>
    ##  1 http://marvel.wikia.co… "Henry Jo…        1269 YES      MALE   ""                  Sep-63                  1963
    ##  2 http://marvel.wikia.co… "Henry Jo…        1269 YES      MALE   ""                  Sep-63                  1963
    ##  3 http://marvel.wikia.co… "Henry Jo…        1269 YES      MALE   ""                  Sep-63                  1963
    ##  4 http://marvel.wikia.co… "Henry Jo…        1269 YES      MALE   ""                  Sep-63                  1963
    ##  5 http://marvel.wikia.co… "Henry Jo…        1269 YES      MALE   ""                  Sep-63                  1963
    ##  6 http://marvel.wikia.co… "Janet va…        1165 YES      FEMALE ""                  Sep-63                  1963
    ##  7 http://marvel.wikia.co… "Janet va…        1165 YES      FEMALE ""                  Sep-63                  1963
    ##  8 http://marvel.wikia.co… "Janet va…        1165 YES      FEMALE ""                  Sep-63                  1963
    ##  9 http://marvel.wikia.co… "Janet va…        1165 YES      FEMALE ""                  Sep-63                  1963
    ## 10 http://marvel.wikia.co… "Janet va…        1165 YES      FEMALE ""                  Sep-63                  1963
    ## # ℹ 855 more rows
    ## # ℹ abbreviated name: ¹​Full.Reserve.Avengers.Intro
    ## # ℹ 10 more variables: Years.since.joining <int>, Honorary <chr>, Return1 <chr>, Return2 <chr>, Return3 <chr>,
    ## #   Return4 <chr>, Return5 <chr>, Notes <chr>, Time <dbl>, Death <chr>

Similarly, deal with the returns of characters.

    returns <- av |>
      pivot_longer(cols = starts_with("Return"),
                   names_to = "Time",
                   values_to = "Return") |>
      mutate(TimeReturn = parse_number(str_remove(Time,"Return")))
    returns

    ## # A tibble: 865 × 19
    ##    URL                     Name.Alias Appearances Current. Gender Probationary.Introl Full.Reserve.Avenger…¹  Year
    ##    <chr>                   <chr>            <int> <chr>    <chr>  <chr>               <chr>                  <int>
    ##  1 http://marvel.wikia.co… "Henry Jo…        1269 YES      MALE   ""                  Sep-63                  1963
    ##  2 http://marvel.wikia.co… "Henry Jo…        1269 YES      MALE   ""                  Sep-63                  1963
    ##  3 http://marvel.wikia.co… "Henry Jo…        1269 YES      MALE   ""                  Sep-63                  1963
    ##  4 http://marvel.wikia.co… "Henry Jo…        1269 YES      MALE   ""                  Sep-63                  1963
    ##  5 http://marvel.wikia.co… "Henry Jo…        1269 YES      MALE   ""                  Sep-63                  1963
    ##  6 http://marvel.wikia.co… "Janet va…        1165 YES      FEMALE ""                  Sep-63                  1963
    ##  7 http://marvel.wikia.co… "Janet va…        1165 YES      FEMALE ""                  Sep-63                  1963
    ##  8 http://marvel.wikia.co… "Janet va…        1165 YES      FEMALE ""                  Sep-63                  1963
    ##  9 http://marvel.wikia.co… "Janet va…        1165 YES      FEMALE ""                  Sep-63                  1963
    ## 10 http://marvel.wikia.co… "Janet va…        1165 YES      FEMALE ""                  Sep-63                  1963
    ## # ℹ 855 more rows
    ## # ℹ abbreviated name: ¹​Full.Reserve.Avengers.Intro
    ## # ℹ 11 more variables: Years.since.joining <int>, Honorary <chr>, Death1 <chr>, Death2 <chr>, Death3 <chr>,
    ## #   Death4 <chr>, Death5 <chr>, Notes <chr>, Time <chr>, Return <chr>, TimeReturn <dbl>
…
